%YAML 1.1
%TAG !u! tag:unity3d.com,2011:
--- !u!114 &11400000
MonoBehaviour:
  m_ObjectHideFlags: 0
  m_CorrespondingSourceObject: {fileID: 0}
  m_PrefabInstance: {fileID: 0}
  m_PrefabAsset: {fileID: 0}
  m_GameObject: {fileID: 0}
  m_Enabled: 1
  m_EditorHideFlags: 0
  m_Script: {fileID: 11500000, guid: ca8da3b365ee69b4d8d6b9a2c1009da7, type: 3}
  m_Name: LegsPlate
  m_EditorClassIdentifier: 
  name: LegsPlate
  icon: {fileID: 0}
  prefab: {fileID: 0}
  equipmentSlot: 3
  damageModifier: 0
  armorModifier: 1
