%YAML 1.1
%TAG !u! tag:unity3d.com,2011:
--- !u!114 &-6973662884028137883
MonoBehaviour:
  m_ObjectHideFlags: 3
  m_CorrespondingSourceObject: {fileID: 0}
  m_PrefabInstance: {fileID: 0}
  m_PrefabAsset: {fileID: 0}
  m_GameObject: {fileID: 0}
  m_Enabled: 1
  m_EditorHideFlags: 0
  m_Script: {fileID: 11500000, guid: 9008a067f4d626c4d8bc4bc48f04bb89, type: 3}
  m_Name: AmbientOcclusion
  m_EditorClassIdentifier: 
  active: 1
  <displayName>k__BackingField: 
  m_AdvancedMode: 0
  quality:
    m_OverrideState: 1
    m_Value: 1
  rayTracing:
    m_OverrideState: 1
    m_Value: 0
  intensity:
    m_OverrideState: 1
    m_Value: 0.34
    min: 0
    max: 4
  directLightingStrength:
    m_OverrideState: 1
    m_Value: 0.039
    min: 0
    max: 1
  radius:
    m_OverrideState: 1
    m_Value: 1.7
    min: 0.25
    max: 5
  temporalAccumulation:
    m_OverrideState: 1
    m_Value: 1
  ghostingReduction:
    m_OverrideState: 1
    m_Value: 0.5
    min: 0
    max: 1
  blurSharpness:
    m_OverrideState: 1
    m_Value: 0.1
    min: 0
    max: 1
  layerMask:
    m_OverrideState: 1
    m_Value:
      m_Bits: 4294967295
  rayLength:
    m_OverrideState: 1
    m_Value: 0.5
    min: 0
    max: 50
  sampleCount:
    m_OverrideState: 1
    m_Value: 4
    min: 1
    max: 64
  denoise:
    m_OverrideState: 1
    m_Value: 0
  denoiserRadius:
    m_OverrideState: 1
    m_Value: 0.5
    min: 0.001
    max: 1
  m_StepCount:
    m_OverrideState: 1
    m_Value: 6
    min: 2
    max: 32
  m_FullResolution:
    m_OverrideState: 1
    m_Value: 0
  m_MaximumRadiusInPixels:
    m_OverrideState: 1
    m_Value: 40
    min: 16
    max: 256
  m_BilateralUpsample:
    m_OverrideState: 1
    m_Value: 1
  m_DirectionCount:
    m_OverrideState: 1
    m_Value: 2
    min: 1
    max: 6
--- !u!114 &11400000
MonoBehaviour:
  m_ObjectHideFlags: 0
  m_CorrespondingSourceObject: {fileID: 0}
  m_PrefabInstance: {fileID: 0}
  m_PrefabAsset: {fileID: 0}
  m_GameObject: {fileID: 0}
  m_Enabled: 1
  m_EditorHideFlags: 0
  m_Script: {fileID: 11500000, guid: d7fd9488000d3734a9e00ee676215985, type: 3}
  m_Name: GameObject Profile
  m_EditorClassIdentifier: 
  components:
  - {fileID: -6973662884028137883}
  - {fileID: 6676593558010372497}
--- !u!114 &6676593558010372497
MonoBehaviour:
  m_ObjectHideFlags: 3
  m_CorrespondingSourceObject: {fileID: 0}
  m_PrefabInstance: {fileID: 0}
  m_PrefabAsset: {fileID: 0}
  m_GameObject: {fileID: 0}
  m_Enabled: 1
  m_EditorHideFlags: 0
  m_Script: {fileID: 11500000, guid: 953beb541740ddc499d005ee80c9ff29, type: 3}
  m_Name: Fog
  m_EditorClassIdentifier: 
  active: 1
  <displayName>k__BackingField: 
  m_AdvancedMode: 0
  enabled:
    m_OverrideState: 1
    m_Value: 0
  colorMode:
    m_OverrideState: 1
    m_Value: 1
  color:
    m_OverrideState: 1
    m_Value:
      r: 0.5
      g: 0.5
      b: 0.5
      a: 1
    hdr: 1
    showAlpha: 0
    showEyeDropper: 1
  tint:
    m_OverrideState: 1
    m_Value:
      r: 1
      g: 1
      b: 1
      a: 1
    hdr: 1
    showAlpha: 0
    showEyeDropper: 1
  maxFogDistance:
    m_OverrideState: 1
    m_Value: 5000
    min: 0
  mipFogMaxMip:
    m_OverrideState: 1
    m_Value: 0.5
    min: 0
    max: 1
  mipFogNear:
    m_OverrideState: 1
    m_Value: 0
    min: 0
  mipFogFar:
    m_OverrideState: 1
    m_Value: 1000
    min: 0
  baseHeight:
    m_OverrideState: 1
    m_Value: 0
  maximumHeight:
    m_OverrideState: 1
    m_Value: 50
  albedo:
    m_OverrideState: 1
    m_Value:
      r: 1
      g: 1
      b: 1
      a: 1
    hdr: 0
    showAlpha: 1
    showEyeDropper: 1
  meanFreePath:
    m_OverrideState: 1
    m_Value: 400
    min: 1
  enableVolumetricFog:
    m_OverrideState: 1
    m_Value: 0
  anisotropy:
    m_OverrideState: 1
    m_Value: 0
    min: -1
    max: 1
  globalLightProbeDimmer:
    m_OverrideState: 1
    m_Value: 1
    min: 0
    max: 1
  depthExtent:
    m_OverrideState: 1
    m_Value: 64
    min: 0.1
  sliceDistributionUniformity:
    m_OverrideState: 1
    m_Value: 0.75
    min: 0
    max: 1
  filter:
    m_OverrideState: 1
    m_Value: 0
